[gd_scene load_steps=3 format=2]

[ext_resource path="res://scenes/items/weapons/projectile_weapons/projectiles/Projectile.tscn" type="PackedScene" id=1]
[ext_resource path="res://scenes/items/weapons/projectile_weapons/projectiles/explosiveprojectile/ExplosiveProjectile.gd" type="Script" id=2]

[node name="ExplosiveProjectile" instance=ExtResource( 1 )]
script = ExtResource( 2 )

[node name="ExplosionArea" type="Area" parent="." index="0"]
gravity = 0.0

[node name="ExplosionShape" type="CollisionShape" parent="ExplosionArea" index="0"]
