[gd_scene load_steps=3 format=2]

[ext_resource path="res://scenes/items/weapons/projectile_weapons/projectiles/Projectile.tscn" type="PackedScene" id=1]
[ext_resource path="res://scenes/items/weapons/projectile_weapons/projectiles/directdamageprojectile/DirectDamageProjectile.gd" type="Script" id=2]

[node name="Projectile" instance=ExtResource( 1 )]
script = ExtResource( 2 )
projectile_force = 1000
