[gd_resource type="StyleBoxFlat" format=2]

[resource]
bg_color = Color( 0.262745, 0.262745, 0.262745, 1 )
border_width_left = 10
border_width_top = 10
border_width_right = 10
border_width_bottom = 10
border_color = Color( 0.152941, 0.152941, 0.152941, 1 )
border_blend = true
corner_radius_top_left = 10
corner_radius_top_right = 10
corner_radius_bottom_right = 10
corner_radius_bottom_left = 10
expand_margin_top = 5.0
expand_margin_bottom = 5.0
