[gd_resource type="StyleBoxFlat" format=2]

[resource]
content_margin_left = 0.0
content_margin_right = 0.0
content_margin_top = 0.0
content_margin_bottom = 0.0
bg_color = Color( 0.266667, 1, 0, 0.901961 )
border_width_top = 13
border_width_bottom = 10
border_color = Color( 0.8, 0.8, 0.8, 0 )
corner_radius_top_left = 3
corner_radius_top_right = 3
corner_radius_bottom_right = 3
corner_radius_bottom_left = 3
expand_margin_left = 20.0
expand_margin_right = 20.0
shadow_color = Color( 0, 0, 0, 0 )
