[gd_scene load_steps=3 format=2]

[ext_resource path="res://scenes/items/weapons/Weapon.tscn" type="PackedScene" id=1]
[ext_resource path="res://scenes/items/weapons/projectile_weapons/ProjectileWeapon.gd" type="Script" id=2]

[node name="ProjectileWeapon" instance=ExtResource( 1 )]
script = ExtResource( 2 )

[node name="PickupArea" parent="Movables" index="0" groups=[
"itemPickupArea",
]]

[node name="ProjectileReference" type="Position3D" parent="Movables" index="2"]
