[gd_scene load_steps=4 format=2]

[ext_resource path="res://scenes/gui/menus/settingsmenu/setting/toggle/Toggle.tscn" type="PackedScene" id=1]
[ext_resource path="res://scenes/gui/menus/settingsmenu/setting/toggle/fullscreen/FullScreen.gd" type="Script" id=2]
[ext_resource path="res://assets/themes/NeonCrisisDefaultTheme.tres" type="Theme" id=3]

[node name="FullScreen" instance=ExtResource( 1 )]
theme = ExtResource( 3 )
script = ExtResource( 2 )
text = "Fullscreen"
setting_path = "video/fullscreen"

[node name="Label" parent="HBoxContainer" index="0"]
margin_right = 166.0
text = "Fullscren"

[node name="Spacer" parent="HBoxContainer" index="1"]
margin_left = 170.0
