[gd_scene load_steps=3 format=2]

[ext_resource path="res://scenes/gui/menus/button/Button.tscn" type="PackedScene" id=1]
[ext_resource path="res://scenes/gui/menus/button/connecttoserverbutton/ConnectToServerButton.gd" type="Script" id=2]

[node name="ConnectToServerButton" instance=ExtResource( 1 )]
script = ExtResource( 2 )
hover_animation_time = 0.1
[connection signal="pressed" from="." to="." method="_on_Button_pressed"]
