[gd_scene load_steps=2 format=2]

[ext_resource path="res://scenes/items/weapons/projectile_weapons/projectiles/Projectile.gd" type="Script" id=1]

[node name="Projectile" type="RigidBody"]
contacts_reported = 1
contact_monitor = true
script = ExtResource( 1 )
[connection signal="body_shape_entered" from="." to="." method="_on_body_shape_entered"]
