[gd_resource type="StyleBoxFlat" format=2]

[resource]
bg_color = Color( 0.133333, 0.286275, 0.694118, 1 )
border_width_left = 10
border_width_top = 5
border_width_bottom = 5
border_color = Color( 0.8, 0.8, 0.8, 0 )
corner_radius_top_left = 6
corner_radius_top_right = 6
corner_radius_bottom_right = 6
corner_radius_bottom_left = 8
