[gd_scene load_steps=4 format=2]

[ext_resource path="res://scenes/gui/menus/settingsmenu/setting/Setting.tscn" type="PackedScene" id=1]
[ext_resource path="res://assets/fonts/ButtonFont.tres" type="DynamicFont" id=2]
[ext_resource path="res://scenes/gui/menus/settingsmenu/setting/toggle/Toggle.gd" type="Script" id=3]

[node name="Toggle" instance=ExtResource( 1 )]
script = ExtResource( 3 )
text = "Toggle"

[node name="HBoxContainer" type="HBoxContainer" parent="." index="0"]
anchor_right = 1.0
anchor_bottom = 1.0
__meta__ = {
"_edit_use_anchors_": false
}

[node name="Label" type="Label" parent="HBoxContainer" index="0"]
margin_top = 282.0
margin_right = 114.0
margin_bottom = 318.0
custom_fonts/font = ExtResource( 2 )
text = "Toggle"
__meta__ = {
"_edit_use_anchors_": false
}

[node name="Spacer" type="Control" parent="HBoxContainer" index="1"]
margin_left = 118.0
margin_right = 944.0
margin_bottom = 600.0
size_flags_horizontal = 3
size_flags_vertical = 3

[node name="CheckButton" type="CheckButton" parent="HBoxContainer" index="2"]
margin_left = 948.0
margin_right = 1024.0
margin_bottom = 600.0
focus_mode = 0
enabled_focus_mode = 0
[connection signal="toggled" from="HBoxContainer/CheckButton" to="." method="_on_CheckButton_toggled"]
