[gd_scene load_steps=2 format=2]

[ext_resource path="res://scenes/spawners/itemspawner/ItemSpawner.tscn" type="PackedScene" id=2]

[node name="StandardWeaponSpawner" instance=ExtResource( 2 )]
items_odds = {
Resource( "res://scenes/items/weapons/projectile_weapons/lasergun/LaserGun.tscn" ): 0.5,
Resource( "res://scenes/items/weapons/projectile_weapons/rocketlauncher/RocketLauncher.tscn" ): 0.5
}

[node name="SpawnPosition" parent="." index="0"]
transform = Transform( 1, 0, 0, 0, 1, 0, 0, 0, 1, 0, 2.25497, 0 )
