[gd_scene load_steps=4 format=2]

[ext_resource path="res://scenes/characters/player/remote/RemotePlayer.tscn" type="PackedScene" id=1]

[sub_resource type="SpatialMaterial" id=1]
albedo_color = Color( 0.305882, 0.407843, 0.964706, 1 )

[sub_resource type="SpatialMaterial" id=2]
albedo_color = Color( 0.305882, 0.407843, 0.964706, 1 )

[node name="Player" instance=ExtResource( 1 )]

[node name="Model" parent="." index="0"]
material = SubResource( 1 )

[node name="CSGBox" parent="Model" index="0"]
material = SubResource( 2 )
