[gd_resource type="StyleBoxFlat" format=2]

[resource]
bg_color = Color( 1, 0, 0, 0 )
border_width_left = 5
border_width_top = 5
border_width_right = 5
border_width_bottom = 5
border_color = Color( 0.952941, 0.00784314, 0.917647, 1 )
border_blend = true
corner_radius_top_left = 4
corner_radius_top_right = 4
corner_radius_bottom_right = 4
corner_radius_bottom_left = 4
